{
    "cid": "demo",
    "type": "form",
    "widget": "BasicForm",
    "components": [
      {
        "type": "container",
        "widget": "FieldSet",
        "title": "Optional Rendering",
        "path": "",
        "components": [
          {
            "type": "progressBar",
            "title": "Progress Bar",
            "path": "input",
            "widget": "ProgressBar",
            "options": {
              "span": "4"
            }
          }
        ]
      }
    ]
  }