{
  "cid": "demo",
  "type": "form",
  "widget": "GridForm",
  "components": [
    {
      "type": "container",
      "widget": "FieldSet",
      "title": "Optional Rendering",
      "path": "",
      "components": [
        {
          "type": "boolean",
          "title": "Hide",
          "path": "hide",
          "widget": "CheckboxField",
          "options": {
            "span": 1
          },
          "rules": {
            "OptionalRenderingExample": {
              "title": "onChange",
              "type": "onChange",
              "action": "OnChange",
              "then": [
                {
                  "type": "rendering",
                  "action": "toggle",
                  "inputs": [
                    {
                      "type": "from",
                      "path": "input"
                    }
                  ]
                }
              ]
            }
          }
        },
        {
          "type": "string",
          "title": "Text Input",
          "path": "input",
          "widget": "TextField",
          "options": {
            "span": "4"
          }
        }
      ]
    }
  ]
}
