{
  "cid": "subtract",
  "type": "form",
    "widget": "GridForm",
    "components": [
      {
        "path": "Initial",
        "type": "number",
        "widget": "GridNumberField",
        "title": "Initial",
        "description": "",
        "validations": {
          "required": { "value": false, "error": "" },
          "min": { "error": "" },
          "max": { "error": "" }
        },
        "options": { "span": 1, "defaultValue": 0 },
        "rules": {
          "rule": {
            "active": true,
            "title": "Rule",
            "description": "",
            "action": "OnChange",
            "type": "onChange",
            "then": [{ "type": "", "action": "", "inputs": [] }]
          },
          "446398ae-fec2-4052-89ad-03eebabe7c86_2": {
            "active": true,
            "title": "Subtraction",
            "description": "",
            "action": "OnChange",
            "type": "onChange",
            "then": [
              {
                "type": "number",
                "action": "subtract",
                "inputs": [
                  {
                    "type": "data",
                    "title": "Initial",
                    "id": "446398ae-fec2-4052-89ad-03eebabe7c86",
                    "path": "Initial"
                  },
                  {
                    "type": "data",
                    "title": "Subtractor",
                    "id": "ec6e3802-11e3-40c0-a0f9-653e90a4ca4f",
                    "path": "Subtractor"
                  }
                ]
              },
              {
                "type": "",
                "action": "update",
                "inputs": [
                  {
                    "type": "from",
                    "title": "Result",
                    "id": "13351ebf-0be9-46b2-95a6-a71501047c6b",
                    "path": "Result"
                  },
                  { "type": "chain", "path": "subtract" }
                ],
                "options": { "path": "data" }
              }
            ],
            "sources": [
              { "cid": "446398ae-fec2-4052-89ad-03eebabe7c86", "title": "" },
              {
                "cid": "ec6e3802-11e3-40c0-a0f9-653e90a4ca4f",
                "title": "Subtractor"
              }
            ]
          }
        }
      },
      {
        "path": "Subtractor",
        "type": "number",
        "widget": "GridNumberField",
        "title": "Subtractor",
        "description": "",
        "validations": {
          "required": { "value": false, "error": "" },
          "min": { "error": "" },
          "max": { "error": "" }
        },
        "options": { "span": 1, "defaultValue": 0 },
        "rules": {
          "446398ae-fec2-4052-89ad-03eebabe7c86_2": {
            "active": true,
            "title": "Subtraction",
            "description": "",
            "action": "OnChange",
            "type": "onChange",
            "then": [
              {
                "type": "number",
                "action": "subtract",
                "inputs": [
                  {
                    "type": "data",
                    "title": "Initial",
                    "id": "446398ae-fec2-4052-89ad-03eebabe7c86",
                    "path": "Initial"
                  },
                  {
                    "type": "data",
                    "title": "Subtractor",
                    "id": "ec6e3802-11e3-40c0-a0f9-653e90a4ca4f",
                    "path": "Subtractor"
                  }
                ]
              },
              {
                "type": "",
                "action": "update",
                "inputs": [
                  {
                    "type": "from",
                    "title": "Result",
                    "id": "13351ebf-0be9-46b2-95a6-a71501047c6b",
                    "path": "Result"
                  },
                  { "type": "chain", "path": "subtract" }
                ],
                "options": { "path": "data" }
              }
            ],
            "sources": [
              { "cid": "446398ae-fec2-4052-89ad-03eebabe7c86", "title": "" },
              {
                "cid": "ec6e3802-11e3-40c0-a0f9-653e90a4ca4f",
                "title": "Subtractor"
              }
            ]
          }
        }
      },
      {
        "path": "Result",
        "type": "number",
        "widget": "GridNumberField",
        "title": "Result",
        "description": "",
        "validations": {
          "required": { "value": false, "error": "" },
          "min": { "error": "" },
          "max": { "error": "" }
        },
        "options": { "span": 1, "defaultValue": 0, "disabled": true }
      }
    ]
  }