{
  "cid": "lessDate",
  "type": "form",
    "widget": "GridForm",
    "components": [
      {
        "type": "date",
        "description": "",
        "options": { "span": 1, "defaultValue": "01/01/1970" },
        "path": "EarlierDate",
        "title": "Earlier Date",
        "validations": {
          "required": { "value": false, "error": "" },
          "min": { "error": "" },
          "max": { "error": "" }
        },
        "widget": "DateField",
        "rules": {
          "rules_1": {
            "active": true,
            "title": "Rule",
            "description": "",
            "action": "OnChange",
            "type": "onChange",
            "then": [{ "type": "", "action": "", "inputs": [] }]
          },
          "3ebfc78b-8ea6-4655-ad24-a7064be057d7_2": {
            "active": true,
            "title": "Rule",
            "description": "",
            "action": "OnChange",
            "type": "onChange",
            "then": [
              {
                "type": "",
                "action": "update",
                "inputs": [
                  {
                    "type": "from",
                    "title": "Greater Than?",
                    "id": "d71edd82-3013-44e1-bbf4-13775debd8dd",
                    "path": "GreaterThan"
                  },
                  { "type": "boolean", "value": true }
                ],
                "options": { "path": "data" }
              }
            ],
            "sources": [
              { "cid": "3ebfc78b-8ea6-4655-ad24-a7064be057d7", "title": "" },
              {
                "cid": "619a8317-adf2-4c99-8225-c73ab0412f42",
                "title": "Later Date"
              }
            ],
            "when": [
              {
                "type": "date",
                "action": "lessThan",
                "inputs": [
                  {
                    "type": "data",
                    "title": "Earlier Date",
                    "id": "3ebfc78b-8ea6-4655-ad24-a7064be057d7",
                    "path": "EarlierDate"
                  },
                  {
                    "type": "data",
                    "title": "Later Date",
                    "id": "619a8317-adf2-4c99-8225-c73ab0412f42",
                    "path": "LaterDate"
                  }
                ]
              }
            ],
            "else": [
              {
                "type": "",
                "action": "update",
                "inputs": [
                  {
                    "type": "from",
                    "title": "Greater Than?",
                    "id": "d71edd82-3013-44e1-bbf4-13775debd8dd",
                    "path": "GreaterThan"
                  },
                  { "type": "boolean", "value": false }
                ],
                "options": { "path": "data" }
              }
            ]
          }
        }
      },
      {
        "type": "date",
        "description": "",
        "options": { "span": 1, "defaultValue": "01/01/1970" },
        "path": "LaterDate",
        "title": "Later Date",
        "validations": {
          "required": { "value": false, "error": "" },
          "min": { "error": "" },
          "max": { "error": "" }
        },
        "widget": "DateField",
        "rules": {
          "3ebfc78b-8ea6-4655-ad24-a7064be057d7_2": {
            "active": true,
            "title": "Rule",
            "description": "",
            "action": "OnChange",
            "type": "onChange",
            "then": [
              {
                "type": "",
                "action": "update",
                "inputs": [
                  {
                    "type": "from",
                    "title": "Greater Than?",
                    "id": "d71edd82-3013-44e1-bbf4-13775debd8dd",
                    "path": "GreaterThan"
                  },
                  { "type": "boolean", "value": true }
                ],
                "options": { "path": "data" }
              }
            ],
            "sources": [
              { "cid": "3ebfc78b-8ea6-4655-ad24-a7064be057d7", "title": "" },
              {
                "cid": "619a8317-adf2-4c99-8225-c73ab0412f42",
                "title": "Later Date"
              }
            ],
            "when": [
              {
                "type": "date",
                "action": "lessThan",
                "inputs": [
                  {
                    "type": "data",
                    "title": "Earlier Date",
                    "id": "3ebfc78b-8ea6-4655-ad24-a7064be057d7",
                    "path": "EarlierDate"
                  },
                  {
                    "type": "data",
                    "title": "Later Date",
                    "id": "619a8317-adf2-4c99-8225-c73ab0412f42",
                    "path": "LaterDate"
                  }
                ]
              }
            ],
            "else": [
              {
                "type": "",
                "action": "update",
                "inputs": [
                  {
                    "type": "from",
                    "title": "Greater Than?",
                    "id": "d71edd82-3013-44e1-bbf4-13775debd8dd",
                    "path": "GreaterThan"
                  },
                  { "type": "boolean", "value": false }
                ],
                "options": { "path": "data" }
              }
            ]
          }
        }
      },
      {
        "type": "toggle",
        "description": "",
        "options": { "span": 1, "defaultValue": true, "disabled": true },
        "path": "LessThan",
        "title": "Less Than?",
        "validations": { "required": { "value": false, "error": "" } },
        "widget": "GridCheckboxField"
      }
    ]
  }