{
  "cid": "filled",
  "type": "form",
    "widget": "GridForm",
    "components": [
      {
        "path": "Text",
        "type": "text",
        "widget": "GridTextField",
        "title": "Text",
        "description": "",
        "validations": {
          "required": { "value": false, "error": "" },
          "min": { "error": "" },
          "max": { "error": "" }
        },
        "options": { "span": 1, "defaultValue": "Default Form Value" },
        "rules": {
          "rule": {
            "active": true,
            "title": "Filled Rule",
            "description": "",
            "action": "OnChange",
            "type": "onChange",
            "then": [
              {
                "type": "",
                "action": "update",
                "inputs": [
                  {
                    "type": "from",
                    "title": "Filled?",
                    "id": "54528eb0-b912-4035-acb5-71c9488172ec",
                    "path": "Filled"
                  },
                  { "type": "boolean", "value": true }
                ],
                "options": { "path": "data" }
              }
            ],
            "when": [
              {
                "type": "",
                "action": "isFilled",
                "inputs": [
                  {
                    "type": "data",
                    "title": "Text",
                    "id": "4ea479ed-2a5b-44e0-b964-b549e80e9a6c",
                    "path": "Text"
                  }
                ]
              }
            ],
            "else": [
              {
                "type": "",
                "action": "update",
                "inputs": [
                  {
                    "type": "from",
                    "title": "Filled?",
                    "id": "54528eb0-b912-4035-acb5-71c9488172ec",
                    "path": "Filled"
                  },
                  { "type": "boolean", "value": false }
                ],
                "options": { "path": "data" }
              }
            ]
          }
        }
      },
      {
        "path": "Filled",
        "type": "toggle",
        "widget": "GridCheckboxField",
        "title": "Filled?",
        "description": "",
        "validations": { "required": { "value": false, "error": "" } },
        "options": { "span": 1, "defaultValue": true, "disabled": true }
      }
    ]
  }