{
    "cid": "addnum",
    "type": "form",
      "widget": "GridForm",
      "components": [
        {
          "path": "First",
          "type": "number",
          "widget": "GridNumberField",
          "title": "First",
          "description": "",
          "validations": {
            "required": { "value": false, "error": "" },
            "min": { "error": "" },
            "max": { "error": "" }
          },
          "options": { "span": 1, "defaultValue": 0 },
          "rules": {
            "rule": {
              "active": true,
              "title": "Add",
              "description": "",
              "action": "OnChange",
              "type": "onChange",
              "then": [
                {
                  "type": "number",
                  "action": "add",
                  "inputs": [
                    {
                      "type": "data",
                      "title": "First",
                      "id": "e1f248b0-fc21-4104-b820-245037b328ed",
                      "path": "First"
                    },
                    {
                      "type": "data",
                      "title": "Second",
                      "id": "58af42f2-0c9e-45a5-a61c-08e24698d7e4",
                      "path": "Second"
                    }
                  ]
                },
                {
                  "type": "",
                  "action": "update",
                  "inputs": [
                    {
                      "type": "from",
                      "title": "Result",
                      "id": "fa6b3e28-19e8-4b8d-83a2-36561aa7357c",
                      "path": "Result"
                    },
                    { "type": "chain", "path": "add" }
                  ],
                  "options": { "path": "data" }
                }
              ]
            },
            "e1f248b0-fc21-4104-b820-245037b328ed_2": {
              "active": true,
              "title": "Add",
              "description": "",
              "action": "OnChange",
              "type": "onChange",
              "then": [
                {
                  "type": "number",
                  "action": "add",
                  "inputs": [
                    {
                      "type": "data",
                      "title": "First",
                      "id": "e1f248b0-fc21-4104-b820-245037b328ed",
                      "path": "First"
                    },
                    {
                      "type": "data",
                      "title": "Second",
                      "id": "58af42f2-0c9e-45a5-a61c-08e24698d7e4",
                      "path": "Second"
                    }
                  ]
                },
                {
                  "type": "",
                  "action": "update",
                  "inputs": [
                    {
                      "type": "from",
                      "title": "Result",
                      "id": "fa6b3e28-19e8-4b8d-83a2-36561aa7357c",
                      "path": "Result"
                    },
                    { "type": "chain", "path": "add" }
                  ],
                  "options": { "path": "data" }
                }
              ],
              "sources": [
                { "cid": "e1f248b0-fc21-4104-b820-245037b328ed", "title": "" },
                {
                  "cid": "58af42f2-0c9e-45a5-a61c-08e24698d7e4",
                  "title": "Second"
                }
              ]
            }
          }
        },
        {
          "path": "Second",
          "type": "number",
          "widget": "GridNumberField",
          "title": "Second",
          "description": "",
          "validations": {
            "required": { "value": false, "error": "" },
            "min": { "error": "" },
            "max": { "error": "" }
          },
          "options": { "span": 1, "defaultValue": 0 },
          "rules": {
            "e1f248b0-fc21-4104-b820-245037b328ed_2": {
              "active": true,
              "title": "Add",
              "description": "",
              "action": "OnChange",
              "type": "onChange",
              "then": [
                {
                  "type": "number",
                  "action": "compute",
                  "inputs": [
                    {
                      "type": "data",
                      "title": "First",
                      "id": "e1f248b0-fc21-4104-b820-245037b328ed",
                      "path": "First"
                    },
                    {
                      "type": "data",
                      "title": "Second",
                      "id": "58af42f2-0c9e-45a5-a61c-08e24698d7e4",
                      "path": "Second"
                    }
                  ]
                },
                {
                  "type": "",
                  "action": "update",
                  "inputs": [
                    {
                      "type": "from",
                      "title": "Result",
                      "id": "fa6b3e28-19e8-4b8d-83a2-36561aa7357c",
                      "path": "Result"
                    },
                    { "type": "chain", "path": "add" }
                  ],
                  "options": { "path": "data" }
                }
              ],
              "sources": [
                { "cid": "e1f248b0-fc21-4104-b820-245037b328ed", "title": "" },
                {
                  "cid": "58af42f2-0c9e-45a5-a61c-08e24698d7e4",
                  "title": "Second"
                }
              ]
            }
          }
        },
        {
          "path": "Result",
          "type": "number",
          "widget": "GridNumberField",
          "title": "Result",
          "description": "",
          "validations": {
            "required": { "value": false, "error": "" },
            "min": { "error": "" },
            "max": { "error": "" }
          },
          "options": { "span": 1, "defaultValue": 0, "disabled": true }
        }
      ]
  }
  