{
    "default": ["required", "disabled"],
    "ButtonField": ["required", "disabled", "choices"],
    "CurrencyField": ["required", "disabled", "min", "max"],
    "DatePicker": ["required", "disabled", "min", "max"],
    "DropdownField": ["required", "disabled", "choices"],
    "FilteredDropdownField": ["required", "disabled", "choices"],
    "MultiSelectField": ["required", "disabled", "choices"],
    "NumberField": ["required", "disabled", "min", "max"],
    "SingleSelectField": ["required", "disabled", "choices"]
}